{
    "prepare_queue": {
        "installed": [],
        "uninstalled": []
    },
    "config_munge": {
        "files": {
            "config.xml": {
                "parents": {
                    "/*": [
                        {
                            "xml": "<feature name=\"StreamingMedia\"><param name=\"ios-package\" value=\"StreamingMedia\" /></feature>",
                            "count": 1
                        },
                        {
                            "xml": "<feature name=\"BraintreePlugin\"><param name=\"ios-package\" value=\"BraintreePlugin\" /></feature>",
                            "count": 1
                        },
                        {
                            "xml": "<feature name=\"Device\"><param name=\"ios-package\" value=\"CDVDevice\" /></feature>",
                            "count": 1
                        },
                        {
                            "xml": "<feature name=\"InAppBrowser\"><param name=\"ios-package\" value=\"CDVInAppBrowser\" /></feature>",
                            "count": 1
                        },
                        {
                            "xml": "<feature name=\"CDVOrientation\"><param name=\"ios-package\" value=\"CDVOrientation\" /></feature>",
                            "count": 1
                        },
                        {
                            "xml": "<feature name=\"SQLitePlugin\"><param name=\"ios-package\" value=\"SQLitePlugin\" /></feature>",
                            "count": 1
                        }
                    ]
                }
            },
            "*-Info.plist": {
                "parents": {
                    "LSApplicationQueriesSchemes": [
                        {
                            "xml": "<array><string>com.paypal.ppclient.touch.v1</string><string>com.paypal.ppclient.touch.v2</string><string>com.venmo.touch.v2</string></array>",
                            "count": 1
                        }
                    ]
                }
            }
        }
    },
    "installed_plugins": {
        "com.hutchind.cordova.plugins.streamingmedia": {
            "PACKAGE_NAME": "com.Revolt.www"
        },
        "cordova-plugin-braintree": {
            "PACKAGE_NAME": "com.Revolt.www"
        },
        "cordova-plugin-device": {
            "PACKAGE_NAME": "com.Revolt.www"
        },
        "cordova-plugin-inappbrowser": {
            "PACKAGE_NAME": "com.Revolt.www"
        },
        "cordova-plugin-screen-orientation": {
            "PACKAGE_NAME": "com.Revolt.www"
        },
        "cordova-plugin-whitelist": {
            "PACKAGE_NAME": "com.Revolt.www"
        },
        "cordova-sqlite-storage": {
            "PACKAGE_NAME": "com.Revolt.www"
        },
        "es6-promise-plugin": {
            "PACKAGE_NAME": "com.Revolt.www"
        }
    },
    "dependent_plugins": {},
    "modules": [
        {
            "id": "com.hutchind.cordova.plugins.streamingmedia.StreamingMedia",
            "file": "plugins/com.hutchind.cordova.plugins.streamingmedia/www/StreamingMedia.js",
            "pluginId": "com.hutchind.cordova.plugins.streamingmedia",
            "clobbers": [
                "streamingMedia"
            ]
        },
        {
            "id": "cordova-plugin-braintree.BraintreePlugin",
            "file": "plugins/cordova-plugin-braintree/www/braintree-plugin.js",
            "pluginId": "cordova-plugin-braintree",
            "clobbers": [
                "BraintreePlugin"
            ]
        },
        {
            "id": "cordova-plugin-device.device",
            "file": "plugins/cordova-plugin-device/www/device.js",
            "pluginId": "cordova-plugin-device",
            "clobbers": [
                "device"
            ]
        },
        {
            "id": "cordova-plugin-inappbrowser.inappbrowser",
            "file": "plugins/cordova-plugin-inappbrowser/www/inappbrowser.js",
            "pluginId": "cordova-plugin-inappbrowser",
            "clobbers": [
                "cordova.InAppBrowser.open",
                "window.open"
            ]
        },
        {
            "id": "cordova-plugin-screen-orientation.screenorientation",
            "file": "plugins/cordova-plugin-screen-orientation/www/screenorientation.js",
            "pluginId": "cordova-plugin-screen-orientation",
            "clobbers": [
                "cordova.plugins.screenorientation"
            ]
        },
        {
            "id": "cordova-sqlite-storage.SQLitePlugin",
            "file": "plugins/cordova-sqlite-storage/www/SQLitePlugin.js",
            "pluginId": "cordova-sqlite-storage",
            "clobbers": [
                "SQLitePlugin"
            ]
        },
        {
            "id": "es6-promise-plugin.Promise",
            "file": "plugins/es6-promise-plugin/www/promise.js",
            "pluginId": "es6-promise-plugin",
            "runs": true
        }
    ],
    "plugin_metadata": {
        "com.hutchind.cordova.plugins.streamingmedia": "0.1.4",
        "cordova-plugin-braintree": "0.5.2",
        "cordova-plugin-device": "1.1.6",
        "cordova-plugin-inappbrowser": "1.7.1",
        "cordova-plugin-screen-orientation": "2.0.1",
        "cordova-plugin-whitelist": "1.3.2",
        "cordova-sqlite-storage": "2.0.4",
        "es6-promise-plugin": "4.1.0"
    }
}